Global Parameters,,Stimuli Parameters,,,,,,,,Block Parameters,,,,,,,,,,,,
Direction,LTR,Set ID,1,,,2,,,,Block num,1,2,3,4,5,6,7,8,9,10,11,12
Keyboard key for categorization - left:,D,Set Name,Set1,,,Set2,,,,Condition,1,1,1,1,1,1,2,2,2,2,2,2
Keyboard key for categorization - right:,L,Font Size,24,,,24,,,,Num Steps,20,20,40,40,40,40,20,20,40,40,40,40
,,Color,#00FFFF,,,Yellow,,,,Randomization,Pseudu,Pseudu,Pseudu,Real,Pseudu,Real,Pseudu,Pseudu,Pseudu,Real,Pseudu,Real
,,,Text,Value,Hint,,,Hint,,Set,1,2,2,Both,2,Both,1,2,2,Both,2,Both
,,Title 1,FALSE,F,1,Type 1,A,1,,Left top title,FALSE,Type 1,Type 1,Type 1,Type 2,Type 2,FALSE,Type 1,Type 1,Type 1,Type 2,Type 2
,,Title 2,TRUE,T,2,Type 2,B,2,,Right top title,TRUE,Type 2,Type 2,Type 2,Type 1,Type 1,TRUE,Type 2,Type 2,Type 2,Type 1,Type 1
,,,,,,,,,,Left bottom title,,,,FALSE,,FALSE,,,,FALSE,,FALSE
,,,Stimulus,Value,,Stimulus,Value,,,Right bottom title,,,,TRUE,,TRUE,,,,TRUE,,TRUE
,,,I am doing a psychology experiment,T,,I am the life of the party,A,,,Flip set values,,,,,,,,2,2,2,2,2
,,,I am in front of the computer,T,,I feel comfortable around people,A,,,Show hints,,Yes,,,,,,Yes,,,,
,,,I am participating in an experiment on the internet,T,,I start conversations,A,,,,,,,,,,,,,,,
,,,I am looking at a computer screen,T,,I talk to a lot of different people at parties,A,,,,,,,,,,,,,,,
,,,I am putting my fingers on the keyboard,T,,I do not mind being the center of attention,A,,,,,,,,,,,,,,,
,,,I am playing football on the grass,F,,I do not talk a lot,B,,,,,,,,,,,,,,,
,,,I am sunbathing at the beach,F,,I keep in the background,B,,,,,,,,,,,,,,,
,,,I am currently playing an electric guitar,F,,I have little to say,B,,,,,,,,,,,,,,,
,,,I am climbing a steep mountain,F,,I do not like to draw attention to myself,B,,,,,,,,,,,,,,,
,,,I am buying groceries in the local grocery store,F,,I am quiet around strangers,B,,,,,,,,,,,,,,,,